…
This is a great summary that tells us details about the type of data. In this data there are 3 character columns, 3 date columns and 9 numeric columns.

Also there is quite a few missing data for full_name and nickname character columns.

Let us look at the top 10 people who have won tour de France by their nationality and birth country.

tdf_winners %>% 
  count(winner_name, nationality, birth_country, sort = TRUE) %>% 
  top_n(10) #%>% knitr::kable()

## Selecting by n

## # A tibble: 21 x 4
##    winner_name      nationality    birth_country     n
##    <chr>            <chr>          <chr>         <int>
##  1 Lance Armstrong   United States USA               7
##  2 Bernard Hinault   France        France            5
##  3 Eddy Merckx       Belgium       Belgium           5
##  4 Jacques Anquetil  France        France            5
##  5 Miguel Induráin   Spain         Spain             5
##  6 Chris Froome      Great Britain Kenya             4
##  7 Greg LeMond       United States USA               3
##  8 Louison Bobet     France        France            3
##  9 Philippe Thys     Belgium       Belgium           3
## 10 Alberto Contador  Spain         Spain             2
## # … with 11 more rows
…
